315257:25:17726331
315257:26:18014385
315257:28:19925812
315257:32:22848144
315257:33:23572994
315257:33:23541071
315257:34:24313377
315257:34:23787724
315257:35:24946125
315257:35:24444356
315257:36:25732277
315257:38:26605112
315257:39:27874706
315257:41:29078339
315257:44:31004569
315257:46:32743968
315257:47:32840382
315257:47:33315979
315257:15:10365661
315257:16:11081752
315257:16:10800893
315257:17:11706857
315257:17:11611247
315257:17:11878958
315257:18:12816163
315257:19:12975883
315257:19:13474807
315257:20:13957559
315257:21:14414454
315257:22:15396127
