{
  "314472": [
    [
      55, 
      89
    ]
  ], 
  "314473": [
    [
      1, 
      18
    ]
  ], 
  "314474": [
    [
      1, 
      18
    ]
  ], 
  "314475": [
    [
      1, 
      18
    ]
  ], 
  "314476": [
    [
      1, 
      17
    ]
  ], 
  "314477": [
    [
      1, 
      17
    ]
  ], 
  "314478": [
    [
      1, 
      12
    ]
  ], 
  "314479": [
    [
      1, 
      12
    ]
  ], 
  "314480": [
    [
      1, 
      13
    ]
  ], 
  "314481": [
    [
      1, 
      13
    ]
  ], 
  "314482": [
    [
      1, 
      12
    ]
  ], 
  "314483": [
    [
      1, 
      12
    ]
  ], 
  "314485": [
    [
      1, 
      13
    ]
  ], 
  "314486": [
    [
      1, 
      13
    ]
  ], 
  "314487": [
    [
      1, 
      14
    ], 
    [
      15, 
      15
    ]
  ], 
  "314488": [
    [
      1, 
      12
    ], 
    [
      13, 
      13
    ]
  ], 
  "314490": [
    [
      1, 
      13
    ]
  ], 
  "314491": [
    [
      1, 
      13
    ]
  ], 
  "314492": [
    [
      1, 
      19
    ]
  ], 
  "314494": [
    [
      1, 
      22
    ]
  ], 
  "314495": [
    [
      1, 
      14
    ]
  ], 
  "314496": [
    [
      1, 
      15
    ]
  ], 
  "314497": [
    [
      1, 
      12
    ]
  ], 
  "314498": [
    [
      1, 
      12
    ]
  ], 
  "314499": [
    [
      1, 
      13
    ]
  ], 
  "314500": [
    [
      1, 
      12
    ]
  ], 
  "314501": [
    [
      1, 
      12
    ]
  ], 
  "314502": [
    [
      1, 
      12
    ]
  ], 
  "314503": [
    [
      1, 
      12
    ]
  ], 
  "314504": [
    [
      1, 
      12
    ]
  ], 
  "314506": [
    [
      1, 
      17
    ]
  ], 
  "314507": [
    [
      1, 
      13
    ]
  ], 
  "314508": [
    [
      1, 
      14
    ]
  ], 
  "314509": [
    [
      1, 
      12
    ]
  ], 
  "314510": [
    [
      1, 
      12
    ]
  ], 
  "314511": [
    [
      1, 
      14
    ]
  ], 
  "314512": [
    [
      1, 
      12
    ]
  ], 
  "314513": [
    [
      1, 
      12
    ]
  ], 
  "314515": [
    [
      1, 
      5
    ], 
    [
      6, 
      6
    ], 
    [
      7, 
      75
    ]
  ], 
  "314521": [
    [
      1, 
      7
    ], 
    [
      9, 
      37
    ], 
    [
      38, 
      38
    ], 
    [
      39, 
      48
    ]
  ], 
  "314524": [
    [
      1, 
      12
    ]
  ], 
  "314527": [
    [
      1, 
      13
    ]
  ], 
  "314557": [
    [
      1, 
      23
    ]
  ], 
  "314558": [
    [
      1, 
      12
    ], 
    [
      13, 
      36
    ]
  ], 
  "314559": [
    [
      1, 
      11
    ]
  ], 
  "314560": [
    [
      1, 
      11
    ]
  ], 
  "314562": [
    [
      1, 
      11
    ]
  ], 
  "314563": [
    [
      1, 
      23
    ]
  ], 
  "314564": [
    [
      1, 
      25
    ]
  ], 
  "314565": [
    [
      1, 
      26
    ]
  ], 
  "314566": [
    [
      1, 
      26
    ]
  ], 
  "314567": [
    [
      1, 
      27
    ]
  ], 
  "314568": [
    [
      1, 
      2
    ]
  ], 
  "314570": [
    [
      1, 
      25
    ]
  ], 
  "314571": [
    [
      1, 
      27
    ]
  ], 
  "314572": [
    [
      1, 
      23
    ]
  ], 
  "314573": [
    [
      1, 
      23
    ]
  ], 
  "314574": [
    [
      1, 
      9
    ], 
    [
      13, 
      339
    ]
  ], 
  "314575": [
    [
      1, 
      25
    ]
  ], 
  "314649": [
    [
      37, 
      64
    ], 
    [
      67, 
      76
    ], 
    [
      78, 
      86
    ]
  ], 
  "314650": [
    [
      1, 
      23
    ], 
    [
      26, 
      54
    ], 
    [
      56, 
      74
    ], 
    [
      76, 
      84
    ], 
    [
      86, 
      104
    ], 
    [
      106, 
      114
    ], 
    [
      116, 
      145
    ], 
    [
      147, 
      155
    ], 
    [
      157, 
      165
    ], 
    [
      167, 
      175
    ], 
    [
      177, 
      186
    ], 
    [
      189, 
      287
    ], 
    [
      289, 
      297
    ], 
    [
      299, 
      318
    ], 
    [
      320, 
      328
    ], 
    [
      330, 
      340
    ], 
    [
      344, 
      412
    ], 
    [
      414, 
      453
    ], 
    [
      455, 
      473
    ], 
    [
      475, 
      483
    ], 
    [
      485, 
      495
    ], 
    [
      499, 
      537
    ], 
    [
      539, 
      597
    ], 
    [
      599, 
      608
    ], 
    [
      610, 
      618
    ], 
    [
      620, 
      638
    ], 
    [
      641, 
      649
    ], 
    [
      652, 
      664
    ]
  ], 
  "314651": [
    [
      1, 
      6
    ]
  ], 
  "314652": [
    [
      1, 
      13
    ]
  ], 
  "314653": [
    [
      1, 
      12
    ]
  ], 
  "314654": [
    [
      1, 
      12
    ]
  ], 
  "314655": [
    [
      1, 
      12
    ]
  ], 
  "314656": [
    [
      1, 
      12
    ]
  ], 
  "314657": [
    [
      1, 
      12
    ]
  ], 
  "314658": [
    [
      1, 
      12
    ]
  ], 
  "314659": [
    [
      1, 
      12
    ]
  ], 
  "314660": [
    [
      1, 
      12
    ]
  ], 
  "314661": [
    [
      1, 
      10
    ], 
    [
      11, 
      11
    ]
  ], 
  "314662": [
    [
      1, 
      13
    ]
  ], 
  "314663": [
    [
      1, 
      1
    ], 
    [
      5, 
      13
    ], 
    [
      15, 
      24
    ], 
    [
      26, 
      34
    ], 
    [
      36, 
      44
    ], 
    [
      46, 
      54
    ], 
    [
      57, 
      75
    ], 
    [
      77, 
      85
    ], 
    [
      87, 
      96
    ], 
    [
      99, 
      127
    ], 
    [
      129, 
      138
    ], 
    [
      141, 
      149
    ], 
    [
      151, 
      160
    ], 
    [
      162, 
      170
    ], 
    [
      172, 
      181
    ], 
    [
      184, 
      198
    ], 
    [
      201, 
      209
    ], 
    [
      211, 
      219
    ], 
    [
      221, 
      229
    ], 
    [
      231, 
      240
    ], 
    [
      242, 
      250
    ], 
    [
      252, 
      260
    ], 
    [
      262, 
      270
    ], 
    [
      272, 
      280
    ], 
    [
      283, 
      291
    ], 
    [
      293, 
      301
    ], 
    [
      303, 
      312
    ], 
    [
      314, 
      322
    ], 
    [
      325, 
      334
    ], 
    [
      336, 
      344
    ], 
    [
      346, 
      354
    ], 
    [
      356, 
      365
    ], 
    [
      367, 
      375
    ], 
    [
      377, 
      385
    ], 
    [
      387, 
      395
    ], 
    [
      397, 
      406
    ], 
    [
      408, 
      416
    ], 
    [
      418, 
      447
    ], 
    [
      449, 
      457
    ], 
    [
      505, 
      526
    ]
  ], 
  "314664": [
    [
      1, 
      184
    ]
  ], 
  "314665": [
    [
      1, 
      13
    ]
  ], 
  "314747": [
    [
      52, 
      62
    ]
  ], 
  "314748": [
    [
      1, 
      29
    ]
  ], 
  "314750": [
    [
      1, 
      9
    ]
  ], 
  "314751": [
    [
      1, 
      9
    ]
  ], 
  "314752": [
    [
      1, 
      10
    ]
  ], 
  "314753": [
    [
      1, 
      2
    ]
  ], 
  "314754": [
    [
      1, 
      12
    ]
  ], 
  "314755": [
    [
      1, 
      61
    ], 
    [
      65, 
      347
    ], 
    [
      349, 
      352
    ]
  ], 
  "314756": [
    [
      1, 
      211
    ]
  ], 
  "314758": [
    [
      1, 
      21
    ]
  ], 
  "314759": [
    [
      1, 
      652
    ], 
    [
      653, 
      653
    ], 
    [
      654, 
      680
    ]
  ], 
  "314764": [
    [
      1, 
      247
    ]
  ], 
  "314810": [
    [
      12, 
      121
    ]
  ], 
  "314811": [
    [
      1, 
      784
    ]
  ], 
  "314816": [
    [
      33, 
      1082
    ]
  ], 
  "314859": [
    [
      22, 
      79
    ]
  ], 
  "314860": [
    [
      1, 
      55
    ]
  ], 
  "314861": [
    [
      1, 
      16
    ]
  ], 
  "314863": [
    [
      1, 
      35
    ]
  ], 
  "314864": [
    [
      1, 
      48
    ]
  ], 
  "314865": [
    [
      1, 
      28
    ]
  ], 
  "314867": [
    [
      1, 
      48
    ]
  ], 
  "314870": [
    [
      1, 
      29
    ]
  ], 
  "314872": [
    [
      1, 
      10
    ]
  ], 
  "314873": [
    [
      1, 
      34
    ]
  ], 
  "314874": [
    [
      1, 
      35
    ], 
    [
      36, 
      38
    ]
  ], 
  "314875": [
    [
      1, 
      41
    ], 
    [
      42, 
      51
    ], 
    [
      52, 
      151
    ]
  ], 
  "314876": [
    [
      1, 
      43
    ]
  ], 
  "314878": [
    [
      1, 
      537
    ]
  ], 
  "314890": [
    [
      49, 
      1433
    ]
  ], 
  "315104": [
    [
      39, 
      266
    ]
  ], 
  "315105": [
    [
      1, 
      3
    ]
  ], 
  "315106": [
    [
      1, 
      553
    ], 
    [
      554, 
      565
    ]
  ], 
  "315107": [
    [
      1, 
      455
    ]
  ], 
  "315108": [
    [
      1, 
      146
    ]
  ], 
  "315150": [
    [
      57, 
      122
    ]
  ], 
  "315151": [
    [
      1, 
      24
    ], 
    [
      25, 
      25
    ], 
    [
      26, 
      53
    ], 
    [
      54, 
      55
    ], 
    [
      56, 
      77
    ]
  ], 
  "315154": [
    [
      1, 
      19
    ], 
    [
      20, 
      20
    ], 
    [
      21, 
      37
    ], 
    [
      38, 
      39
    ], 
    [
      40, 
      98
    ], 
    [
      99, 
      99
    ], 
    [
      100, 
      119
    ], 
    [
      120, 
      120
    ], 
    [
      121, 
      145
    ], 
    [
      146, 
      148
    ], 
    [
      149, 
      200
    ]
  ], 
  "315157": [
    [
      1, 
      17
    ]
  ], 
  "315159": [
    [
      1, 
      154
    ]
  ], 
  "315172": [
    [
      1, 
      318
    ]
  ], 
  "315179": [
    [
      33, 
      65
    ]
  ], 
  "315180": [
    [
      1, 
      21
    ]
  ], 
  "315187": [
    [
      38, 
      43
    ]
  ], 
  "315188": [
    [
      1, 
      14
    ], 
    [
      15, 
      63
    ], 
    [
      64, 
      305
    ]
  ], 
  "315189": [
    [
      1, 
      383
    ]
  ], 
  "315190": [
    [
      1, 
      96
    ]
  ], 
  "315257": [
    [
      1, 
      88
    ], 
    [
      91, 
      92
    ]
  ], 
  "315258": [
    [
      1, 
      1
    ]
  ], 
  "315259": [
    [
      1, 
      172
    ]
  ], 
  "315264": [
    [
      32, 
      129
    ], 
    [
      130, 
      261
    ]
  ], 
  "315265": [
    [
      4, 
      58
    ]
  ], 
  "315267": [
    [
      1, 
      244
    ]
  ], 
  "315268": [
    [
      1, 
      3
    ]
  ], 
  "315270": [
    [
      1, 
      633
    ]
  ], 
  "315322": [
    [
      23, 
      118
    ], 
    [
      122, 
      333
    ], 
    [
      334, 
      334
    ], 
    [
      335, 
      364
    ], 
    [
      365, 
      1354
    ]
  ], 
  "315339": [
    [
      37, 
      654
    ]
  ], 
  "315357": [
    [
      44, 
      732
    ], 
    [
      736, 
      770
    ], 
    [
      780, 
      831
    ]
  ], 
  "315361": [
    [
      40, 
      503
    ], 
    [
      504, 
      623
    ]
  ], 
  "315363": [
    [
      1, 
      136
    ]
  ], 
  "315365": [
    [
      1, 
      2
    ], 
    [
      3, 
      3
    ], 
    [
      4, 
      18
    ], 
    [
      19, 
      22
    ], 
    [
      23, 
      25
    ]
  ], 
  "315366": [
    [
      1, 
      9
    ], 
    [
      10, 
      61
    ], 
    [
      62, 
      66
    ], 
    [
      67, 
      750
    ]
  ], 
  "315420": [
    [
      28, 
      920
    ], 
    [
      924, 
      942
    ], 
    [
      954, 
      1748
    ]
  ], 
  "315488": [
    [
      42, 
      1113
    ]
  ], 
  "315489": [
    [
      1, 
      709
    ]
  ], 
  "315490": [
    [
      1, 
      24
    ]
  ], 
  "315506": [
    [
      13, 
      100
    ]
  ], 
  "315509": [
    [
      1, 
      53
    ]
  ], 
  "315510": [
    [
      1, 
      345
    ]
  ], 
  "315512": [
    [
      1, 
      589
    ], 
    [
      590, 
      591
    ], 
    [
      592, 
      1081
    ], 
    [
      1082, 
      1122
    ]
  ], 
  "315543": [
    [
      55, 
      171
    ]
  ], 
  "315555": [
    [
      22, 
      97
    ]
  ], 
  "315556": [
    [
      1, 
      26
    ]
  ], 
  "315557": [
    [
      1, 
      279
    ]
  ], 
  "315640": [
    [
      46, 
      87
    ]
  ], 
  "315641": [
    [
      1, 
      4
    ]
  ], 
  "315642": [
    [
      1, 
      92
    ]
  ], 
  "315644": [
    [
      1, 
      184
    ]
  ], 
  "315645": [
    [
      1, 
      40
    ], 
    [
      41, 
      46
    ], 
    [
      47, 
      390
    ], 
    [
      391, 
      394
    ], 
    [
      395, 
      594
    ]
  ], 
  "315646": [
    [
      1, 
      1033
    ]
  ], 
  "315647": [
    [
      1, 
      58
    ]
  ], 
  "315648": [
    [
      1, 
      97
    ], 
    [
      98, 
      111
    ]
  ], 
  "315689": [
    [
      24, 
      1049
    ], 
    [
      1050, 
      1167
    ], 
    [
      1168, 
      1172
    ], 
    [
      1173, 
      1179
    ], 
    [
      1180, 
      1180
    ], 
    [
      1181, 
      1186
    ]
  ], 
  "315690": [
    [
      1, 
      9
    ], 
    [
      10, 
      543
    ], 
    [
      544, 
      545
    ], 
    [
      546, 
      654
    ]
  ], 
  "315702": [
    [
      38, 
      113
    ]
  ], 
  "315703": [
    [
      1, 
      136
    ], 
    [
      137, 
      143
    ], 
    [
      144, 
      545
    ]
  ], 
  "315704": [
    [
      1, 
      14
    ], 
    [
      15, 
      62
    ]
  ], 
  "315705": [
    [
      1, 
      588
    ], 
    [
      589, 
      590
    ], 
    [
      591, 
      700
    ]
  ], 
  "315713": [
    [
      35, 
      359
    ], 
    [
      360, 
      373
    ], 
    [
      374, 
      385
    ], 
    [
      386, 
      399
    ], 
    [
      400, 
      1123
    ]
  ], 
  "315721": [
    [
      33, 
      50
    ], 
    [
      51, 
      55
    ], 
    [
      56, 
      626
    ]
  ]
}